Doer: Nguyen Huu Manh
Reviewer: Vu Khanh ly

--------------------------------------------

1. Task: 
- Convert E-R Diagram to Relational Model

2. Review:
- Errors: None
- Comments: OK
- Proposals for Corrections: None

