Doer: Nguyen Huu Manh
Reviewer: Vu Khanh ly

--------------------------------------------

1. Task: 
- Do sequence diagram for use cases:
  + exit platform area

2. Review:
- Comments: Phần reply chưa rõ ràng, phần alternative cũng chưa rõ ràng. 

